verilog files/Divider.vcd
$date
	Thu Oct 21 18:33:50 2021
$end
$version
	Icarus Verilog
$end
$timescale
	1s
$end
$scope module tb_fp_div $end
$scope module d $end
$var wire 1 ! CLOCK $end
$var wire 32 " InputA [31:0] $end
$var wire 32 # InputB [31:0] $end
$var wire 1 $ RESET $end
$var wire 1 % x $end
$var wire 1 & valid $end
$var wire 32 ' special_result [31:0] $end
$var wire 2 ( exception_wire [1:0] $end
$var reg 32 ) AbyB [31:0] $end
$var reg 1 * DONE $end
$var reg 2 + EXCEPTION [1:0] $end
$var reg 32 , a [31:0] $end
$var reg 10 - a_exponent [9:0] $end
$var reg 25 . a_mantissa [24:0] $end
$var reg 32 / b [31:0] $end
$var reg 10 0 b_exponent [9:0] $end
$var reg 25 1 b_mantissa [24:0] $end
$var reg 1 2 clk_exception_circuit $end
$var reg 32 3 quotient [31:0] $end
$var reg 10 4 result [9:0] $end
$var reg 24 5 result_mantissa [23:0] $end
$var reg 1 6 s1 $end
$var reg 1 7 s2 $end
$var reg 4 8 state [3:0] $end
$var integer 32 9 denormalise_checker [31:0] $end
$var integer 32 : denormalise_result_check [31:0] $end
$var integer 32 ; i [31:0] $end
$scope module c $end
$var wire 32 < InputA [31:0] $end
$var wire 32 = InputB [31:0] $end
$var wire 1 2 clk $end
$var reg 2 > EXCEPTION [1:0] $end
$var reg 9 ? expA [8:0] $end
$var reg 9 @ expB [8:0] $end
$var reg 23 A mantissaA [22:0] $end
$var reg 23 B mantissaB [22:0] $end
$var reg 32 C result [31:0] $end
$var reg 1 D signA $end
$var reg 1 E signB $end
$var reg 32 F valInf [31:0] $end
$var reg 32 G valNaN [31:0] $end
$var reg 32 H valZero [31:0] $end
$var reg 1 & valid $end
$upscope $end
$upscope $end
$upscope $end
$enddefinitions $end
#0
$dumpvars
bx H
bx G
bx F
xE
xD
bx C
bx B
bx A
bx @
bx ?
bx >
bx =
bx <
bx ;
bx :
bx 9
bx 8
x7
x6
bx 5
bx 4
bx 3
x2
bx 1
bx 0
bx /
bx .
bx -
bx ,
bx +
x*
bx )
bx (
bx '
x&
x%
x$
bx #
bx "
0!
$end
#2
1!
b11000001000101100110011001100110 #
b1100010000000000101011 "
#3
0$
#4
b0 8
0*
1$
0!
#5
0$
#6
b1 8
b0 9
b0 :
b0 ;
b11000001000101100110011001100110 /
b11000001000101100110011001100110 =
b1100010000000000101011 ,
b1100010000000000101011 <
1!
#8
0!
#10
1%
b10 8
17
06
b10000010 0
b0 -
1!
#12
0!
#14
b1001 8
02
1!
#16
0!
#18
b1010 8
0&
b10000000000000000000000000000000 H
b11111111100000000000000000000000 F
b11111111110000000000000000000000 G
1E
0D
b11 @
b110000001 ?
b101100110011001100110 B
b1100010000000000101011 A
12
1!
#19
b0 '
b0 C
1&
#20
0!
#22
b11 8
1!
#24
0!
#26
b100 8
b100101100110011001100110 1
b1 -
b1100010000000000101011 .
1!
#28
0!
#30
b110 8
b1111111110 4
1!
#32
0!
#34
b1 ;
b11000100000000001010110 .
b0xxxxxxxxxxxxxxxxxxxxxxx 5
1!
#36
0!
#38
b10 ;
b110001000000000010101100 .
b0xxxxxxxxxxxxxxxxxxxxxx 5
1!
#40
0!
#42
b11 ;
b10110110011010010001100 .
b1xxxxxxxxxxxxxxxxxxxxx 5
1!
#44
0!
#46
b100 ;
b101101100110100100011000 .
b10xxxxxxxxxxxxxxxxxxxx 5
1!
#48
0!
#50
b101 ;
b10000000000010101100100 .
b101xxxxxxxxxxxxxxxxxxx 5
1!
#52
0!
#54
b110 ;
b100000000000101011001000 .
b1010xxxxxxxxxxxxxxxxxx 5
1!
#56
0!
#58
b111 ;
b1000000000001010110010000 .
b10100xxxxxxxxxxxxxxxxx 5
1!
#60
0!
#62
b1000 ;
b110100110101111001010100 .
b101001xxxxxxxxxxxxxxxx 5
1!
#64
0!
#66
b1001 ;
b11110011110111111011100 .
b1010011xxxxxxxxxxxxxxx 5
1!
#68
0!
#70
b1010 ;
b111100111101111110111000 .
b10100110xxxxxxxxxxxxxx 5
1!
#72
0!
#74
b1011 ;
b101110101111001010100100 .
b101001101xxxxxxxxxxxxx 5
1!
#76
0!
#78
b1100 ;
b10010010001100001111100 .
b1010011011xxxxxxxxxxxx 5
1!
#80
0!
#82
b1101 ;
b100100100011000011111000 .
b10100110110xxxxxxxxxxx 5
1!
#84
0!
#86
b1110 ;
b1001001000110000111110000 .
b101001101100xxxxxxxxxx 5
1!
#88
0!
#90
b1111 ;
b1000110111111011100010100 .
b1010011011001xxxxxxxxx 5
1!
#92
0!
#94
b10000 ;
b1000010110010000101011100 .
b10100110110011xxxxxxxx 5
1!
#96
0!
#98
b10001 ;
b111010010111010111101100 .
b101001101100111xxxxxxx 5
1!
#100
0!
#102
b10010 ;
b101001100001111100001100 .
b1010011011001111xxxxxx 5
1!
#104
0!
#106
b10011 ;
b111110111000101001100 .
b10100110110011111xxxxx 5
1!
#108
0!
#110
b10100 ;
b1111101110001010011000 .
b101001101100111110xxxx 5
1!
#112
0!
#114
b10101 ;
b11111011100010100110000 .
b1010011011001111100xxx 5
1!
#116
0!
#118
b10110 ;
b111110111000101001100000 .
b10100110110011111000xx 5
1!
#120
0!
#122
b10111 ;
b110010100100011111110100 .
b101001101100111110001x 5
1!
#124
0!
#126
b1011 8
b11000 ;
b11001111100001100011100 .
b1010011011001111100011 5
1!
#128
0!
#130
b1111111111 4
b101001101100111110001 5
b1 :
1!
#132
0!
#134
b0 4
b10100110110011111000 5
1!
#136
0!
#138
b1 4
b1010011011001111100 5
1!
#140
0!
#142
b111 8
b0 :
b0 4
1!
#144
0!
#146
b1000 8
b10000000000001010011011001111100 3
1!
#148
0!
#150
1*
b10000000000001010011011001111100 )
1!
